{
  "Comment.nvim": { "branch": "master", "commit": "e30b7f2008e52442154b66f7c519bfd2f1e32acb" },
  "LuaSnip": { "branch": "master", "commit": "e808bee352d1a6fcf902ca1a71cee76e60e24071" },
  "alpha-nvim": { "branch": "main", "commit": "bf3c8bb8c02ed3d9644cc5bbc48e2bdc39349cd7" },
  "autoclose.nvim": { "branch": "main", "commit": "b2077aa2c83df7ebc19b2a20a3a0654b24ae9c8f" },
  "bufferline.nvim": { "branch": "main", "commit": "2e3c8cc5a57ddd32f1edd2ffd2ccb10c09421f6c" },
  "cmp-buffer": { "branch": "main", "commit": "3022dbc9166796b644a841a02de8dd1cc1d311fa" },
  "cmp-nvim-lsp": { "branch": "main", "commit": "39e2eda76828d88b773cc27a3f61d2ad782c922d" },
  "cmp-path": { "branch": "main", "commit": "91ff86cd9c29299a64f968ebb45846c485725f23" },
  "cmp_luasnip": { "branch": "master", "commit": "05a9ab28b53f71d1aece421ef32fee2cb857a843" },
  "conform.nvim": { "branch": "master", "commit": "1a99fdc1d3aa9ccdf3021e67982a679a8c5c740c" },
  "dressing.nvim": { "branch": "master", "commit": "1b7921eecc65af1baf8ac1dc06f0794934cbcfb2" },
  "friendly-snippets": { "branch": "main", "commit": "00ba9dd3df89509f95437b8d595553707c46d5ea" },
  "gen.nvim": { "branch": "main", "commit": "0be6ca0cdfe45a7b6537cbf41bd22a420c05be85" },
  "kanagawa.nvim": { "branch": "master", "commit": "f491b0fe68fffbece7030181073dfe51f45cda81" },
  "lazy.nvim": { "branch": "main", "commit": "460e1cd8f24e364d54543a4b0e83f6f4ec1f65fb" },
  "llama-copilot.nvim": { "branch": "main", "commit": "8cd0a212868ccd0b24b70662d6facd5ccb165c2d" },
  "lspkind.nvim": { "branch": "master", "commit": "59c3f419af48a2ffb2320cea85e44e5a95f71664" },
  "lualine.nvim": { "branch": "master", "commit": "b431d228b7bbcdaea818bdc3e25b8cdbe861f056" },
  "mason-lspconfig.nvim": { "branch": "main", "commit": "25c11854aa25558ee6c03432edfa0df0217324be" },
  "mason-tool-installer.nvim": { "branch": "main", "commit": "c5e07b8ff54187716334d585db34282e46fa2932" },
  "mason.nvim": { "branch": "main", "commit": "e2f7f9044ec30067bc11800a9e266664b88cda22" },
  "nvim-cmp": { "branch": "main", "commit": "ae644feb7b67bf1ce4260c231d1d4300b19c6f30" },
  "nvim-lint": { "branch": "master", "commit": "968a35d54b3a4c1ce66609cf80b14d4ae44fe77f" },
  "nvim-lsp-file-operations": { "branch": "master", "commit": "92a673de7ecaa157dd230d0128def10beb56d103" },
  "nvim-lspconfig": { "branch": "master", "commit": "0678aa439b82965daf03679cd146e84f10e299c3" },
  "nvim-tree.lua": { "branch": "master", "commit": "c9104a5d079db5a158c9562c54689df27d52dccc" },
  "nvim-treesitter": { "branch": "master", "commit": "ef52e44bb24161e5138b3de5beadab3f3fcff233" },
  "nvim-ts-autotag": { "branch": "main", "commit": "e239a560f338be31337e7abc3ee42515daf23f5e" },
  "nvim-ts-context-commentstring": { "branch": "main", "commit": "44fd461b879d80a21d5041f312f070f22551c0bc" },
  "nvim-web-devicons": { "branch": "master", "commit": "6b53401918a9033a41159d012160c5fb5eb249ae" },
  "plenary.nvim": { "branch": "master", "commit": "2d9b06177a975543726ce5c73fca176cedbffe9d" },
  "telescope-fzf-native.nvim": { "branch": "main", "commit": "cf48d4dfce44e0b9a2e19a008d6ec6ea6f01a83b" },
  "telescope.nvim": { "branch": "master", "commit": "eae0d8fbde590b0eaa2f9481948cd6fd7dd21656" },
  "todo-comments.nvim": { "branch": "main", "commit": "ae0a2afb47cf7395dc400e5dc4e05274bf4fb9e0" },
  "toggleterm.nvim": { "branch": "main", "commit": "137d06fb103952a0fb567882bb8527e2f92d327d" },
  "trouble.nvim": { "branch": "main", "commit": "6efc446226679fda0547c0fd6a7892fd5f5b15d8" },
  "which-key.nvim": { "branch": "main", "commit": "fb070344402cfc662299d9914f5546d840a22126" }
}
